Black Litterman
…
rend_mensuales %>% summarise(
                             mean=round(mean(monthly.returns,na.rm=T),4),
                             sd = round(sd(monthly.returns,na.rm=T),4),
                             min=round(min(monthly.returns,na.rm=T),4),
                             p1 = round(quantile(monthly.returns,.01,na.rm=T),4),
                             p99 = round(quantile(monthly.returns,.99,na.rm=T),4),
                             maxi = round(max(monthly.returns,na.rm=T),4)) %>% ungroup() %>% 
                      arrange(desc(maxi))

## # A tibble: 35 x 7
##         symbol   mean     sd     min      p1    p99    maxi
##          <chr>  <dbl>  <dbl>   <dbl>   <dbl>  <dbl>   <dbl>
##  1       AC.MX 0.2550 2.7681 -0.9689 -0.1361 0.2759 30.8055
##  2  SANMEXB.MX 0.0164 0.1142 -0.3181 -0.1582 0.3977  0.8750
##  3   GRUMAB.MX 0.0258 0.1383 -0.6208 -0.2358 0.5305  0.7255
##  4  PE&OLES.MX 0.0209 0.1306 -0.3652 -0.2347 0.4751  0.6510
##  5  ELEKTRA.MX 0.0251 0.1500 -0.4417 -0.3507 0.5102  0.5491
##  6    ALFAA.MX 0.0143 0.1032 -0.4841 -0.1837 0.3110  0.4760
##  7     LABB.MX 0.0154 0.1168 -0.3126 -0.2514 0.4087  0.4511
##  8 GFNORTEO.MX 0.0124 0.0897 -0.2762 -0.2212 0.2215  0.4401
##  9 CEMEXCPO.MX 0.0039 0.1240 -0.4875 -0.3183 0.3243  0.4224
## 10    ASURB.MX 0.0217 0.0801 -0.2337 -0.2015 0.2050  0.3927
## # ... with 25 more rows
…
